Bootstrapping Multilevel Models in R Using lmeresampler
…
???

An lmeresamp object is just a list with the following named elements, so you may want to access specific components

--

Extract the bootstrap statistics

```r
resid_boot$replicates
```

```
## # A tibble: 15,000 x 9
##   `(Intercept)` Sexfemale      Age `I(Age^2)`  Height  Weight
##           <dbl>     <dbl>    <dbl>      <dbl>   <dbl>   <dbl>
## 1          1.08   0.0372  -0.00248 0.00000104 0.00191 0.00449
## 2          1.08   0.0262  -0.00228 0.00000890 0.00253 0.00456
## 3          1.10  -0.00518 -0.00227 0.0000266  0.00259 0.00323
## 4          1.08   0.0168  -0.00228 0.0000346  0.00264 0.00399
## 5          1.07   0.0279  -0.00247 0.0000367  0.00216 0.00479
## # … with 14,995 more rows, and 3 more variables: I(Height^2) <dbl>,
## #   I(Weight^2) <dbl>, Height:Weight <dbl>
```
…
